Resume Experiment
…
# A tibble: 3 × 7
  term          estimate std.error statistic   p.value conf.low conf.high
  <chr>            <dbl>     <dbl>     <dbl>     <dbl>    <dbl>     <dbl>
1 (Intercept)     0.0528     0.102    -28.8  7.77e-183   0.0431    0.0642
2 ethnicitycauc   1.55       0.108      4.07 4.64e-  5   1.26      1.92  
3 holesyes        1.70       0.107      4.96 6.92e-  7   1.38      2.09  

# A tibble: 3 × 7
  term          estimate std.error statistic   p.value conf.low conf.high
  <chr>            <dbl>     <dbl>     <dbl>     <dbl>    <dbl>     <dbl>
1 (Intercept)     0.0496    0.0981    -30.6  5.05e-206   0.0407    0.0598
2 ethnicitycauc   1.55      0.108       4.08 4.41e-  5   1.26      1.92  
3 specialyes      2.24      0.106       7.59 3.12e- 14   1.82      2.76  

# A tibble: 45 × 4
   term          estimate conf.low conf.high
   <chr>            <dbl>    <dbl>     <dbl>
 1 (Intercept)     0.0234  0.00659    0.0641
 2 ethnicitycauc   1.22    0.276      5.39  
 3 qualitylow      0.813   0.646      1.02  
 4 gendermale      2.31    0.527     10.1   
 5 nameAllison     3.37    0.559     22.1   
 6 nameAnne        2.99    0.495     19.8   
 7 nameBrad        2.85    0.887     10.9   
 8 nameBrendan     1.25    0.312      5.29  
 9 nameBrett       1.11    0.250      4.95  
10 nameCarrie      4.90    0.812     32.3   
# ℹ 35 more rows
